{
    "success": true,
    "message": "Success",
    "data": {
      "doctors": [
        {
          "doctorId": 262,
          "name": "Dr. Tariq Rafiq Khan",
          "experience": 30,
          "profilePic": "https://staticdev.marham.pk/assets/images/doctor-photo-male.webp",
          "areasOfInterest": [
            "General Pediatric Care",
            "Childhood Nutrition",
            "Vaccination",
            "Circumcision"
          ],
          "firstComeFirstServe": 0,
          "satisfactionScore": 93,
          "rating": 4.8,
          "specialityId": 12,
          "specialityName": "Pediatrician",
          "diagnosisScore": 93,
          "degree": "MBBS, MD (USA), DABP (USA), FAAP (USA)",
          "reviewsCount": 9,
          "isPromotional": false,
          "isTopBooked": false,
          "hospitals": [
            {
              "doctorHospitalId": 14048,
              "doctorId": 262,
              "hospitalId": 61,
              "hospitalName": "Doctors Hospital",
              "hospitalArea": "Johar Town",
              "hospitalCity": "Lahore",
              "fee": 2500,
              "isOnlinePaymentEnabled": 0,
              "discountFee": 0,
              "discount": 0,
              "discountPercentage": 0,
              "lat": 31.479612,
              "lng": 74.280505,
              "isLocationVerified": false
            },
            {
              "doctorHospitalId": 18263,
              "doctorId": 262,
              "hospitalId": 2777,
              "hospitalName": "Dr Tariq Rafiq Hospital",
              "hospitalArea": "Faisal Town",
              "hospitalCity": "Lahore",
              "fee": 2000,
              "isOnlinePaymentEnabled": 0,
              "discountFee": 0,
              "discount": 0,
              "discountPercentage": 0,
              "lat": 0,
              "lng": 0,
              "isLocationVerified": false
            }
          ]
        },
        {
          "doctorId": 14,
          "name": "Asst. Prof. Dr. Naveed Akbar Hotiana",
          "experience": 12,
          "profilePic": "https://staticdev.marham.pk/assets/images/doctor-photo-male.webp",
          "areasOfInterest": [
            "General Pediatric Care",
            "Childhood Nutrition",
            "Childhood Growth & Development",
            "Nutrition Assessment"
          ],
          "firstComeFirstServe": 0,
          "satisfactionScore": 99,
          "rating": 4.8,
          "specialityId": 12,
          "specialityName": "Pediatrician",
          "diagnosisScore": 99,
          "degree": "MBBS, FCPS (Paeds) ",
          "reviewsCount": 44,
          "isPromotional": false,
          "isTopBooked": false,
          "hospitals": [
            {
              "doctorHospitalId": 13268,
              "doctorId": 14,
              "hospitalId": 879,
              "hospitalName": "Ammar Medical Complex Hospital",
              "hospitalArea": "Jail Road",
              "hospitalCity": "Lahore",
              "fee": 2500,
              "isOnlinePaymentEnabled": 0,
              "discountFee": 0,
              "discount": 0,
              "discountPercentage": 0,
              "lat": 31.538733,
              "lng": 74.335848,
              "isLocationVerified": false
            }
          ]
        },
        {
          "doctorId": 3408,
          "name": "Assoc. Prof. Dr. Rizwan Asad Khan",
          "experience": 17,
          "profilePic": "https://staticdev.marham.pk/assets/images/doctor-photo-male.webp",
          "areasOfInterest": [
            "Childhood Growth & Development",
            "Nutrition Assessment",
            "Childhood Nutrition"
          ],
          "firstComeFirstServe": 0,
          "satisfactionScore": 96,
          "rating": 4.8,
          "specialityId": 12,
          "specialityName": "Pediatrician",
          "diagnosisScore": 96,
          "degree": "MBBS, MCPS, FCPS (Pediatrics)",
          "reviewsCount": 6,
          "isPromotional": false,
          "isTopBooked": false,
          "hospitals": [
            {
              "doctorHospitalId": 12871,
              "doctorId": 3408,
              "hospitalId": 426,
              "hospitalName": "Saeed Orthopedic And Medical Center",
              "hospitalArea": "Ichra",
              "hospitalCity": "Lahore",
              "fee": 1000,
              "isOnlinePaymentEnabled": 0,
              "discountFee": 0,
              "discount": 0,
              "discountPercentage": 0,
              "lat": 31.533151,
              "lng": 74.316867,
              "isLocationVerified": false
            },
            {
              "doctorHospitalId": 12873,
              "doctorId": 3408,
              "hospitalId": 8,
              "hospitalName": "Mid City Hospital",
              "hospitalArea": "Jail Road",
              "hospitalCity": "Lahore",
              "fee": 2000,
              "isOnlinePaymentEnabled": 0,
              "discountFee": 0,
              "discount": 0,
              "discountPercentage": 0,
              "lat": 31.538516,
              "lng": 74.336127,
              "isLocationVerified": false
            }
          ]
        },
        {
          "doctorId": 3215,
          "name": "Prof. Dr. Rashid Zia",
          "experience": 30,
          "profilePic": "https://staticdev.marham.pk/assets/images/doctor-photo-male.webp",
          "areasOfInterest": [
            "General Pediatric Care",
            "Childhood Nutrition",
            "Childhood Growth & Development",
            "Nutrition Assessment"
          ],
          "firstComeFirstServe": 0,
          "satisfactionScore": 100,
          "rating": 5,
          "specialityId": 12,
          "specialityName": "Pediatrician",
          "diagnosisScore": 100,
          "degree": "MBBS, MRCP, FRCP, DIP (Child health)",
          "reviewsCount": 6,
          "isPromotional": false,
          "isTopBooked": false,
          "hospitals": [
            {
              "doctorHospitalId": 10049,
              "doctorId": 3215,
              "hospitalId": 1716,
              "hospitalName": "Dr. Rashid Zia Clinic",
              "hospitalArea": "Shadman",
              "hospitalCity": "Lahore",
              "fee": 2000,
              "isOnlinePaymentEnabled": 0,
              "discountFee": 0,
              "discount": 0,
              "discountPercentage": 0,
              "lat": 31.539157,
              "lng": 74.326212,
              "isLocationVerified": false
            }
          ]
        },
        {
          "doctorId": 2929,
          "name": "Dr. Sajid Maqbool",
          "experience": 41,
          "profilePic": "https://staticdev.marham.pk/assets/images/doctor-photo-male.webp",
          "areasOfInterest": [],
          "firstComeFirstServe": 0,
          "satisfactionScore": 0,
          "rating": 4.7,
          "specialityId": 12,
          "specialityName": "Pediatrician",
          "diagnosisScore": null,
          "degree": "DABP, FRCS, FAAP, FCPS, FRCP",
          "reviewsCount": 0,
          "isPromotional": false,
          "isTopBooked": false,
          "hospitals": [
            {
              "doctorHospitalId": 15388,
              "doctorId": 2929,
              "hospitalId": 1601,
              "hospitalName": "Dr. Sajid Maqbool Clinic",
              "hospitalArea": "Garden Town",
              "hospitalCity": "Lahore",
              "fee": 2000,
              "isOnlinePaymentEnabled": 0,
              "discountFee": 0,
              "discount": 0,
              "discountPercentage": 0,
              "lat": 31.500414,
              "lng": 74.327407,
              "isLocationVerified": false
            }
          ]
        },
        {
          "doctorId": 2076,
          "name": "Dr. Saqib Mansoor",
          "experience": 28,
          "profilePic": "https://staticdev.marham.pk/assets/images/doctor-photo-male.webp",
          "areasOfInterest": [
            "Weight Loss",
            "fever",
            "diarrhea",
            "Women Wellness"
          ],
          "firstComeFirstServe": 0,
          "satisfactionScore": 0,
          "rating": 0,
          "specialityId": 12,
          "specialityName": "Pediatrician",
          "diagnosisScore": null,
          "degree": "MBBS , FCPS",
          "reviewsCount": 0,
          "isPromotional": false,
          "isTopBooked": false,
          "hospitals": [
            {
              "doctorHospitalId": 2779,
              "doctorId": 2076,
              "hospitalId": 20,
              "hospitalName": "Saadan Hospital",
              "hospitalArea": "Johar Town",
              "hospitalCity": "Lahore",
              "fee": 2000,
              "isOnlinePaymentEnabled": 0,
              "discountFee": 0,
              "discount": 0,
              "discountPercentage": 0,
              "lat": 31.475385,
              "lng": 74.271012,
              "isLocationVerified": false
            }
          ]
        },
        {
          "doctorId": 259,
          "name": "Dr. Shahid Aslam",
          "experience": 30,
          "profilePic": "https://staticdev.marham.pk/assets/images/doctor-photo-male.webp",
          "areasOfInterest": [],
          "firstComeFirstServe": 0,
          "satisfactionScore": 89,
          "rating": 4.1,
          "specialityId": 12,
          "specialityName": "Pediatrician",
          "diagnosisScore": 89,
          "degree": "MBBS, MRCP(PAED) (UK), MRCPCH (UK)",
          "reviewsCount": 1,
          "isPromotional": false,
          "isTopBooked": false,
          "hospitals": [
            {
              "doctorHospitalId": 14047,
              "doctorId": 259,
              "hospitalId": 61,
              "hospitalName": "Doctors Hospital",
              "hospitalArea": "Johar Town",
              "hospitalCity": "Lahore",
              "fee": 2000,
              "isOnlinePaymentEnabled": 0,
              "discountFee": 0,
              "discount": 0,
              "discountPercentage": 0,
              "lat": 31.479612,
              "lng": 74.280505,
              "isLocationVerified": false
            }
          ]
        },
        {
          "doctorId": 5042,
          "name": "Dr. Aftab Anwar",
          "experience": 13,
          "profilePic": "https://staticdev.marham.pk/assets/images/doctor-photo-male.webp",
          "areasOfInterest": [],
          "firstComeFirstServe": 0,
          "satisfactionScore": 100,
          "rating": 5,
          "specialityId": 12,
          "specialityName": "Pediatrician",
          "diagnosisScore": 100,
          "degree": "MBBS, FCPS",
          "reviewsCount": 0,
          "isPromotional": false,
          "isTopBooked": false,
          "hospitals": [
            {
              "doctorHospitalId": 7284,
              "doctorId": 5042,
              "hospitalId": 2622,
              "hospitalName": "Lahore Care Hospital",
              "hospitalArea": "Ferozepur Road",
              "hospitalCity": "Lahore",
              "fee": 1500,
              "isOnlinePaymentEnabled": 0,
              "discountFee": 0,
              "discount": 0,
              "discountPercentage": 0,
              "lat": 31.458991,
              "lng": 74.351417,
              "isLocationVerified": false
            }
          ]
        },
        {
          "doctorId": 4482,
          "name": "Prof. Dr. Azher Shah",
          "experience": 16,
          "profilePic": "https://staticdev.marham.pk/assets/images/doctor-photo-male.webp",
          "areasOfInterest": [],
          "firstComeFirstServe": 0,
          "satisfactionScore": 0,
          "rating": 0,
          "specialityId": 12,
          "specialityName": "Pediatrician",
          "diagnosisScore": null,
          "degree": "MBBS, FCPS",
          "reviewsCount": 0,
          "isPromotional": false,
          "isTopBooked": false,
          "hospitals": [
            {
              "doctorHospitalId": 6498,
              "doctorId": 4482,
              "hospitalId": 9,
              "hospitalName": "Saira Memorial Hospital",
              "hospitalArea": "Model Town",
              "hospitalCity": "Lahore",
              "fee": 1500,
              "isOnlinePaymentEnabled": 0,
              "discountFee": 0,
              "discount": 0,
              "discountPercentage": 0,
              "lat": 31.482192,
              "lng": 74.335193,
              "isLocationVerified": false
            }
          ]
        },
        {
          "doctorId": 15,
          "name": "Asst. Prof. Dr. Mariam Malik",
          "experience": 0,
          "profilePic": "https://staticdev.marham.pk/assets/images/doctor-photo-male.webp",
          "areasOfInterest": [],
          "firstComeFirstServe": 0,
          "satisfactionScore": 0,
          "rating": 0,
          "specialityId": 12,
          "specialityName": "Pediatrician",
          "diagnosisScore": null,
          "degree": "MCPS, FCPS, FRCOG",
          "reviewsCount": 0,
          "isPromotional": false,
          "isTopBooked": false,
          "hospitals": [
            {
              "doctorHospitalId": 7909,
              "doctorId": 15,
              "hospitalId": 879,
              "hospitalName": "Ammar Medical Complex Hospital",
              "hospitalArea": "Jail Road",
              "hospitalCity": "Lahore",
              "fee": 2500,
              "isOnlinePaymentEnabled": 0,
              "discountFee": 0,
              "discount": 0,
              "discountPercentage": 0,
              "lat": 31.538733,
              "lng": 74.335848,
              "isLocationVerified": false
            }
          ]
        },
        {
          "doctorId": 283,
          "name": "Dr. Nadeem Saqib",
          "experience": 0,
          "profilePic": "https://staticdev.marham.pk/assets/images/doctor-photo-male.webp",
          "areasOfInterest": [],
          "firstComeFirstServe": 0,
          "satisfactionScore": 0,
          "rating": 0,
          "specialityId": 12,
          "specialityName": "Pediatrician",
          "diagnosisScore": null,
          "degree": "MBBS",
          "reviewsCount": 0,
          "isPromotional": false,
          "isTopBooked": false,
          "hospitals": [
            {
              "doctorHospitalId": 13380,
              "doctorId": 283,
              "hospitalId": 71,
              "hospitalName": "National Hospital & Medical Center",
              "hospitalArea": "Misri Shah",
              "hospitalCity": "Lahore",
              "fee": 800,
              "isOnlinePaymentEnabled": 0,
              "discountFee": 0,
              "discount": 0,
              "discountPercentage": 0,
              "lat": 31.554606,
              "lng": 74.357158,
              "isLocationVerified": false
            },
            {
              "doctorHospitalId": 13381,
              "doctorId": 283,
              "hospitalId": 71,
              "hospitalName": "National Hospital & Medical Center",
              "hospitalArea": "Misri Shah",
              "hospitalCity": "Lahore",
              "fee": 800,
              "isOnlinePaymentEnabled": 0,
              "discountFee": 0,
              "discount": 0,
              "discountPercentage": 0,
              "lat": 31.554606,
              "lng": 74.357158,
              "isLocationVerified": false
            }
          ]
        },
        {
          "doctorId": 448,
          "name": "Prof. Dr. Sajida Zaman",
          "experience": 0,
          "profilePic": "https://staticdev.marham.pk/assets/images/doctor-photo-male.webp",
          "areasOfInterest": [],
          "firstComeFirstServe": 1,
          "satisfactionScore": 0,
          "rating": 0,
          "specialityId": 12,
          "specialityName": "Pediatrician",
          "diagnosisScore": null,
          "degree": "MBBS,FCPS",
          "reviewsCount": 0,
          "isPromotional": false,
          "isTopBooked": false,
          "hospitals": [
            {
              "doctorHospitalId": 13551,
              "doctorId": 448,
              "hospitalId": 74,
              "hospitalName": "Punjab Medical Center",
              "hospitalArea": "Jail Road",
              "hospitalCity": "Lahore",
              "fee": 2500,
              "isOnlinePaymentEnabled": 0,
              "discountFee": 0,
              "discount": 0,
              "discountPercentage": 0,
              "lat": 31.536543,
              "lng": 74.34969,
              "isLocationVerified": false
            }
          ]
        }
      ],
      "meta": {
        "total": 112,
        "page": 1,
        "lastPage": 10
      }
    }
  }